insurance_type,is_Aubagio_advantageous,yearMonth,prob
MEDICARE,Not_covered_Aubagio,Jan-17,0.554227801
MEDICARE,Not_covered_Aubagio,Dec-16,0.554227801
MEDICARE,Not_covered_Aubagio,Nov-16,0.554227801
MEDICARE,Not_covered_Aubagio,Oct-16,0.552311981
MEDICARE,Not_covered_Aubagio,Sep-16,0.552311981
MEDICARE,Not_covered_Aubagio,Aug-16,0.552311981
MEDICARE,Not_covered_Aubagio,Jul-16,0.550780407
MEDICARE,Not_covered_Aubagio,Jun-16,0.550780407
MEDICARE,Not_covered_Aubagio,May-16,0.550780407
MEDICARE,Not_covered_Aubagio,Apr-16,0.527849846
MEDICARE,Not_covered_Aubagio,Mar-16,0.527849846
MEDICARE,Not_covered_Aubagio,Feb-16,0.527849846
MEDICARE,Not_covered_Aubagio,Jan-16,0.449190294
MEDICARE,Not_covered_Aubagio,Dec-15,0.449190294
MEDICARE,Not_covered_Aubagio,Nov-15,0.449190294
MEDICARE,Not_covered_Aubagio,Oct-15,0.447790213
MEDICARE,Not_covered_Aubagio,Sep-15,0.447790213
MEDICARE,Not_covered_Aubagio,Aug-15,0.447790213
MEDICARE,Not_covered_Aubagio,Jul-15,0.445283258
MEDICARE,Not_covered_Aubagio,Jun-15,0.445283258
MEDICARE,Not_covered_Aubagio,May-15,0.445283258
MEDICARE,Not_covered_Aubagio,Apr-15,0.443100144
MEDICARE,Not_covered_Aubagio,Mar-15,0.443100144
MEDICARE,Not_covered_Aubagio,Feb-15,0.443100144
MEDICARE,Not_covered_Aubagio,Jan-15,0.333416465
MEDICARE,Not_covered_Aubagio,Dec-14,0.333416465
MEDICARE,Not_covered_Aubagio,Nov-14,0.333416465
MEDICARE,Not_covered_Aubagio,Oct-14,0.331579724
MEDICARE,Not_covered_Aubagio,Sep-14,0.331579724
MEDICARE,Not_covered_Aubagio,Aug-14,0.331579724
MEDICARE,Not_covered_Aubagio,Jul-14,0.331941194
MEDICARE,Not_covered_Aubagio,Jun-14,0.331941194
MEDICARE,Not_covered_Aubagio,May-14,0.331941194
MEDICARE,Not_covered_Aubagio,Apr-14,0.355774605
MEDICARE,Not_covered_Aubagio,Mar-14,0.355774605
MEDICARE,Not_covered_Aubagio,Feb-14,0.355774605
MEDICARE,Not_covered_Aubagio,Jan-14,0.658813514
MEDICARE,Not_covered_Aubagio,Dec-13,0.658813514
MEDICARE,Not_covered_Aubagio,Nov-13,0.658813514
MEDICARE,Not_covered_Aubagio,Oct-13,0.686732942
MEDICARE,Not_covered_Aubagio,Sep-13,0.686732942
MEDICARE,Not_covered_Aubagio,Aug-13,0.686732942
MEDICARE,Not_covered_Aubagio,Jul-13,0.738405956
MEDICARE,Not_covered_Aubagio,Jun-13,0.738405956
MEDICARE,Not_covered_Aubagio,May-13,0.738405956
MEDICARE,Not_covered_Aubagio,Apr-13,0.960529309
MEDICARE,Not_covered_Aubagio,Mar-13,0.960529309
MEDICARE,Not_covered_Aubagio,Feb-13,0.960529309
MEDICARE,Parity_Aubagio,Jan-17,0
MEDICARE,Parity_Aubagio,Dec-16,0
MEDICARE,Parity_Aubagio,Nov-16,0
MEDICARE,Parity_Aubagio,Oct-16,8.29E-05
MEDICARE,Parity_Aubagio,Sep-16,8.29E-05
MEDICARE,Parity_Aubagio,Aug-16,8.29E-05
MEDICARE,Parity_Aubagio,Jul-16,7.36E-05
MEDICARE,Parity_Aubagio,Jun-16,7.36E-05
MEDICARE,Parity_Aubagio,May-16,7.36E-05
MEDICARE,Parity_Aubagio,Apr-16,0
MEDICARE,Parity_Aubagio,Mar-16,0
MEDICARE,Parity_Aubagio,Feb-16,0
MEDICARE,Parity_Aubagio,Jan-16,0
MEDICARE,Parity_Aubagio,Dec-15,0
MEDICARE,Parity_Aubagio,Nov-15,0
MEDICARE,Parity_Aubagio,Oct-15,0
MEDICARE,Parity_Aubagio,Sep-15,0
MEDICARE,Parity_Aubagio,Aug-15,0
MEDICARE,Parity_Aubagio,Jul-15,7.29E-05
MEDICARE,Parity_Aubagio,Jun-15,7.29E-05
MEDICARE,Parity_Aubagio,May-15,7.29E-05
MEDICARE,Parity_Aubagio,Apr-15,0
MEDICARE,Parity_Aubagio,Mar-15,0
MEDICARE,Parity_Aubagio,Feb-15,0
MEDICARE,Parity_Aubagio,Jan-15,0
MEDICARE,Parity_Aubagio,Dec-14,0
MEDICARE,Parity_Aubagio,Nov-14,0
MEDICARE,Parity_Aubagio,Oct-14,0.28469978
MEDICARE,Parity_Aubagio,Sep-14,0.28469978
MEDICARE,Parity_Aubagio,Aug-14,0.28469978
MEDICARE,Parity_Aubagio,Jul-14,0.286000612
MEDICARE,Parity_Aubagio,Jun-14,0.286000612
MEDICARE,Parity_Aubagio,May-14,0.286000612
MEDICARE,Parity_Aubagio,Apr-14,0.287573968
MEDICARE,Parity_Aubagio,Mar-14,0.287573968
MEDICARE,Parity_Aubagio,Feb-14,0.287573968
MEDICARE,Parity_Aubagio,Jan-14,0.115857073
MEDICARE,Parity_Aubagio,Dec-13,0.115857073
MEDICARE,Parity_Aubagio,Nov-13,0.115857073
MEDICARE,Parity_Aubagio,Oct-13,0.105909156
MEDICARE,Parity_Aubagio,Sep-13,0.105909156
MEDICARE,Parity_Aubagio,Aug-13,0.105909156
MEDICARE,Parity_Aubagio,Jul-13,0
MEDICARE,Parity_Aubagio,Jun-13,0
MEDICARE,Parity_Aubagio,May-13,0
MEDICARE,Parity_Aubagio,Apr-13,0
MEDICARE,Parity_Aubagio,Mar-13,0
MEDICARE,Parity_Aubagio,Feb-13,0
MEDICARE,Somewhat_advantaged_Aubagio,Jan-17,0.269057479
MEDICARE,Somewhat_advantaged_Aubagio,Dec-16,0.269057479
MEDICARE,Somewhat_advantaged_Aubagio,Nov-16,0.269057479
MEDICARE,Somewhat_advantaged_Aubagio,Oct-16,0.270647431
MEDICARE,Somewhat_advantaged_Aubagio,Sep-16,0.270647431
MEDICARE,Somewhat_advantaged_Aubagio,Aug-16,0.270647431
MEDICARE,Somewhat_advantaged_Aubagio,Jul-16,0.279734145
MEDICARE,Somewhat_advantaged_Aubagio,Jun-16,0.279734145
MEDICARE,Somewhat_advantaged_Aubagio,May-16,0.279734145
MEDICARE,Somewhat_advantaged_Aubagio,Apr-16,0.27633193
MEDICARE,Somewhat_advantaged_Aubagio,Mar-16,0.27633193
MEDICARE,Somewhat_advantaged_Aubagio,Feb-16,0.27633193
MEDICARE,Somewhat_advantaged_Aubagio,Jan-16,0.45728767
MEDICARE,Somewhat_advantaged_Aubagio,Dec-15,0.45728767
MEDICARE,Somewhat_advantaged_Aubagio,Nov-15,0.45728767
MEDICARE,Somewhat_advantaged_Aubagio,Oct-15,0.458276285
MEDICARE,Somewhat_advantaged_Aubagio,Sep-15,0.458276285
MEDICARE,Somewhat_advantaged_Aubagio,Aug-15,0.458276285
MEDICARE,Somewhat_advantaged_Aubagio,Jul-15,0.463427574
MEDICARE,Somewhat_advantaged_Aubagio,Jun-15,0.463427574
MEDICARE,Somewhat_advantaged_Aubagio,May-15,0.463427574
MEDICARE,Somewhat_advantaged_Aubagio,Apr-15,0.47479233
MEDICARE,Somewhat_advantaged_Aubagio,Mar-15,0.47479233
MEDICARE,Somewhat_advantaged_Aubagio,Feb-15,0.47479233
MEDICARE,Somewhat_advantaged_Aubagio,Jan-15,0.528039022
MEDICARE,Somewhat_advantaged_Aubagio,Dec-14,0.528039022
MEDICARE,Somewhat_advantaged_Aubagio,Nov-14,0.528039022
MEDICARE,Somewhat_advantaged_Aubagio,Oct-14,0.24674609
MEDICARE,Somewhat_advantaged_Aubagio,Sep-14,0.24674609
MEDICARE,Somewhat_advantaged_Aubagio,Aug-14,0.24674609
MEDICARE,Somewhat_advantaged_Aubagio,Jul-14,0.248242324
MEDICARE,Somewhat_advantaged_Aubagio,Jun-14,0.248242324
MEDICARE,Somewhat_advantaged_Aubagio,May-14,0.248242324
MEDICARE,Somewhat_advantaged_Aubagio,Apr-14,0.249949206
MEDICARE,Somewhat_advantaged_Aubagio,Mar-14,0.249949206
MEDICARE,Somewhat_advantaged_Aubagio,Feb-14,0.249949206
MEDICARE,Somewhat_advantaged_Aubagio,Jan-14,0.135091855
MEDICARE,Somewhat_advantaged_Aubagio,Dec-13,0.135091855
MEDICARE,Somewhat_advantaged_Aubagio,Nov-13,0.135091855
MEDICARE,Somewhat_advantaged_Aubagio,Oct-13,0.129759707
MEDICARE,Somewhat_advantaged_Aubagio,Sep-13,0.129759707
MEDICARE,Somewhat_advantaged_Aubagio,Aug-13,0.129759707
MEDICARE,Somewhat_advantaged_Aubagio,Jul-13,0.166628092
MEDICARE,Somewhat_advantaged_Aubagio,Jun-13,0.166628092
MEDICARE,Somewhat_advantaged_Aubagio,May-13,0.166628092
MEDICARE,Somewhat_advantaged_Aubagio,Apr-13,0.028517092
MEDICARE,Somewhat_advantaged_Aubagio,Mar-13,0.028517092
MEDICARE,Somewhat_advantaged_Aubagio,Feb-13,0.028517092
MEDICARE,Somewhat_disadvantaged_Aubagio,Jan-17,0.044611836
MEDICARE,Somewhat_disadvantaged_Aubagio,Dec-16,0.044611836
MEDICARE,Somewhat_disadvantaged_Aubagio,Nov-16,0.044611836
MEDICARE,Somewhat_disadvantaged_Aubagio,Oct-16,0.044949945
MEDICARE,Somewhat_disadvantaged_Aubagio,Sep-16,0.044949945
MEDICARE,Somewhat_disadvantaged_Aubagio,Aug-16,0.044949945
MEDICARE,Somewhat_disadvantaged_Aubagio,Jul-16,0.031083358
MEDICARE,Somewhat_disadvantaged_Aubagio,Jun-16,0.031083358
MEDICARE,Somewhat_disadvantaged_Aubagio,May-16,0.031083358
MEDICARE,Somewhat_disadvantaged_Aubagio,Apr-16,0.032277208
MEDICARE,Somewhat_disadvantaged_Aubagio,Mar-16,0.032277208
MEDICARE,Somewhat_disadvantaged_Aubagio,Feb-16,0.032277208
MEDICARE,Somewhat_disadvantaged_Aubagio,Jan-16,0.013864798
MEDICARE,Somewhat_disadvantaged_Aubagio,Dec-15,0.013864798
MEDICARE,Somewhat_disadvantaged_Aubagio,Nov-15,0.013864798
MEDICARE,Somewhat_disadvantaged_Aubagio,Oct-15,0.016534607
MEDICARE,Somewhat_disadvantaged_Aubagio,Sep-15,0.016534607
MEDICARE,Somewhat_disadvantaged_Aubagio,Aug-15,0.016534607
MEDICARE,Somewhat_disadvantaged_Aubagio,Jul-15,0.013709067
MEDICARE,Somewhat_disadvantaged_Aubagio,Jun-15,0.013709067
MEDICARE,Somewhat_disadvantaged_Aubagio,May-15,0.013709067
MEDICARE,Somewhat_disadvantaged_Aubagio,Apr-15,0.012105753
MEDICARE,Somewhat_disadvantaged_Aubagio,Mar-15,0.012105753
MEDICARE,Somewhat_disadvantaged_Aubagio,Feb-15,0.012105753
MEDICARE,Somewhat_disadvantaged_Aubagio,Jan-15,0.000491743
MEDICARE,Somewhat_disadvantaged_Aubagio,Dec-14,0.000491743
MEDICARE,Somewhat_disadvantaged_Aubagio,Nov-14,0.000491743
MEDICARE,Somewhat_disadvantaged_Aubagio,Oct-14,0.000495952
MEDICARE,Somewhat_disadvantaged_Aubagio,Sep-14,0.000495952
MEDICARE,Somewhat_disadvantaged_Aubagio,Aug-14,0.000495952
MEDICARE,Somewhat_disadvantaged_Aubagio,Jul-14,0.00050354
MEDICARE,Somewhat_disadvantaged_Aubagio,Jun-14,0.00050354
MEDICARE,Somewhat_disadvantaged_Aubagio,May-14,0.00050354
MEDICARE,Somewhat_disadvantaged_Aubagio,Apr-14,0.000507491
MEDICARE,Somewhat_disadvantaged_Aubagio,Mar-14,0.000507491
MEDICARE,Somewhat_disadvantaged_Aubagio,Feb-14,0.000507491
MEDICARE,Somewhat_disadvantaged_Aubagio,Jan-14,0.024741356
MEDICARE,Somewhat_disadvantaged_Aubagio,Dec-13,0.024741356
MEDICARE,Somewhat_disadvantaged_Aubagio,Nov-13,0.024741356
MEDICARE,Somewhat_disadvantaged_Aubagio,Oct-13,0.011639311
MEDICARE,Somewhat_disadvantaged_Aubagio,Sep-13,0.011639311
MEDICARE,Somewhat_disadvantaged_Aubagio,Aug-13,0.011639311
MEDICARE,Somewhat_disadvantaged_Aubagio,Jul-13,0.016889159
MEDICARE,Somewhat_disadvantaged_Aubagio,Jun-13,0.016889159
MEDICARE,Somewhat_disadvantaged_Aubagio,May-13,0.016889159
MEDICARE,Somewhat_disadvantaged_Aubagio,Apr-13,0.010953599
MEDICARE,Somewhat_disadvantaged_Aubagio,Mar-13,0.010953599
MEDICARE,Somewhat_disadvantaged_Aubagio,Feb-13,0.010953599
MEDICARE,Very_advantaged_Aubagio,Jan-17,0
MEDICARE,Very_advantaged_Aubagio,Dec-16,0
MEDICARE,Very_advantaged_Aubagio,Nov-16,0
MEDICARE,Very_advantaged_Aubagio,Oct-16,0
MEDICARE,Very_advantaged_Aubagio,Sep-16,0
MEDICARE,Very_advantaged_Aubagio,Aug-16,0
MEDICARE,Very_advantaged_Aubagio,Jul-16,0
MEDICARE,Very_advantaged_Aubagio,Jun-16,0
MEDICARE,Very_advantaged_Aubagio,May-16,0
MEDICARE,Very_advantaged_Aubagio,Apr-16,0
MEDICARE,Very_advantaged_Aubagio,Mar-16,0
MEDICARE,Very_advantaged_Aubagio,Feb-16,0
MEDICARE,Very_advantaged_Aubagio,Jan-16,0.006960182
MEDICARE,Very_advantaged_Aubagio,Dec-15,0.006960182
MEDICARE,Very_advantaged_Aubagio,Nov-15,0.006960182
MEDICARE,Very_advantaged_Aubagio,Oct-15,0.007128244
MEDICARE,Very_advantaged_Aubagio,Sep-15,0.007128244
MEDICARE,Very_advantaged_Aubagio,Aug-15,0.007128244
MEDICARE,Very_advantaged_Aubagio,Jul-15,0.007260411
MEDICARE,Very_advantaged_Aubagio,Jun-15,0.007260411
MEDICARE,Very_advantaged_Aubagio,May-15,0.007260411
MEDICARE,Very_advantaged_Aubagio,Apr-15,0.008961318
MEDICARE,Very_advantaged_Aubagio,Mar-15,0.008961318
MEDICARE,Very_advantaged_Aubagio,Feb-15,0.008961318
MEDICARE,Very_advantaged_Aubagio,Jan-15,0.052909918
MEDICARE,Very_advantaged_Aubagio,Dec-14,0.052909918
MEDICARE,Very_advantaged_Aubagio,Nov-14,0.052909918
MEDICARE,Very_advantaged_Aubagio,Oct-14,0.053256221
MEDICARE,Very_advantaged_Aubagio,Sep-14,0.053256221
MEDICARE,Very_advantaged_Aubagio,Aug-14,0.053256221
MEDICARE,Very_advantaged_Aubagio,Jul-14,0.052292721
MEDICARE,Very_advantaged_Aubagio,Jun-14,0.052292721
MEDICARE,Very_advantaged_Aubagio,May-14,0.052292721
MEDICARE,Very_advantaged_Aubagio,Apr-14,0.052434105
MEDICARE,Very_advantaged_Aubagio,Mar-14,0.052434105
MEDICARE,Very_advantaged_Aubagio,Feb-14,0.052434105
MEDICARE,Very_advantaged_Aubagio,Jan-14,0.038486095
MEDICARE,Very_advantaged_Aubagio,Dec-13,0.038486095
MEDICARE,Very_advantaged_Aubagio,Nov-13,0.038486095
MEDICARE,Very_advantaged_Aubagio,Oct-13,0.038764594
MEDICARE,Very_advantaged_Aubagio,Sep-13,0.038764594
MEDICARE,Very_advantaged_Aubagio,Aug-13,0.038764594
MEDICARE,Very_advantaged_Aubagio,Jul-13,0.050731177
MEDICARE,Very_advantaged_Aubagio,Jun-13,0.050731177
MEDICARE,Very_advantaged_Aubagio,May-13,0.050731177
MEDICARE,Very_advantaged_Aubagio,Apr-13,0
MEDICARE,Very_advantaged_Aubagio,Mar-13,0
MEDICARE,Very_advantaged_Aubagio,Feb-13,0
MEDICARE,Very_disadvantaged_Aubagio,Jan-17,0.132102885
MEDICARE,Very_disadvantaged_Aubagio,Dec-16,0.132102885
MEDICARE,Very_disadvantaged_Aubagio,Nov-16,0.132102885
MEDICARE,Very_disadvantaged_Aubagio,Oct-16,0.132007776
MEDICARE,Very_disadvantaged_Aubagio,Sep-16,0.132007776
MEDICARE,Very_disadvantaged_Aubagio,Aug-16,0.132007776
MEDICARE,Very_disadvantaged_Aubagio,Jul-16,0.138328516
MEDICARE,Very_disadvantaged_Aubagio,Jun-16,0.138328516
MEDICARE,Very_disadvantaged_Aubagio,May-16,0.138328516
MEDICARE,Very_disadvantaged_Aubagio,Apr-16,0.163541017
MEDICARE,Very_disadvantaged_Aubagio,Mar-16,0.163541017
MEDICARE,Very_disadvantaged_Aubagio,Feb-16,0.163541017
MEDICARE,Very_disadvantaged_Aubagio,Jan-16,0.072697056
MEDICARE,Very_disadvantaged_Aubagio,Dec-15,0.072697056
MEDICARE,Very_disadvantaged_Aubagio,Nov-15,0.072697056
MEDICARE,Very_disadvantaged_Aubagio,Oct-15,0.070270651
MEDICARE,Very_disadvantaged_Aubagio,Sep-15,0.070270651
MEDICARE,Very_disadvantaged_Aubagio,Aug-15,0.070270651
MEDICARE,Very_disadvantaged_Aubagio,Jul-15,0.070246825
MEDICARE,Very_disadvantaged_Aubagio,Jun-15,0.070246825
MEDICARE,Very_disadvantaged_Aubagio,May-15,0.070246825
MEDICARE,Very_disadvantaged_Aubagio,Apr-15,0.061040456
MEDICARE,Very_disadvantaged_Aubagio,Mar-15,0.061040456
MEDICARE,Very_disadvantaged_Aubagio,Feb-15,0.061040456
MEDICARE,Very_disadvantaged_Aubagio,Jan-15,0.085142852
MEDICARE,Very_disadvantaged_Aubagio,Dec-14,0.085142852
MEDICARE,Very_disadvantaged_Aubagio,Nov-14,0.085142852
MEDICARE,Very_disadvantaged_Aubagio,Oct-14,0.083222233
MEDICARE,Very_disadvantaged_Aubagio,Sep-14,0.083222233
MEDICARE,Very_disadvantaged_Aubagio,Aug-14,0.083222233
MEDICARE,Very_disadvantaged_Aubagio,Jul-14,0.081019609
MEDICARE,Very_disadvantaged_Aubagio,Jun-14,0.081019609
MEDICARE,Very_disadvantaged_Aubagio,May-14,0.081019609
MEDICARE,Very_disadvantaged_Aubagio,Apr-14,0.053760625
MEDICARE,Very_disadvantaged_Aubagio,Mar-14,0.053760625
MEDICARE,Very_disadvantaged_Aubagio,Feb-14,0.053760625
MEDICARE,Very_disadvantaged_Aubagio,Jan-14,0.027010106
MEDICARE,Very_disadvantaged_Aubagio,Dec-13,0.027010106
MEDICARE,Very_disadvantaged_Aubagio,Nov-13,0.027010106
MEDICARE,Very_disadvantaged_Aubagio,Oct-13,0.02719429
MEDICARE,Very_disadvantaged_Aubagio,Sep-13,0.02719429
MEDICARE,Very_disadvantaged_Aubagio,Aug-13,0.02719429
MEDICARE,Very_disadvantaged_Aubagio,Jul-13,0.027345616
MEDICARE,Very_disadvantaged_Aubagio,Jun-13,0.027345616
MEDICARE,Very_disadvantaged_Aubagio,May-13,0.027345616
MEDICARE,Very_disadvantaged_Aubagio,Apr-13,0
MEDICARE,Very_disadvantaged_Aubagio,Mar-13,0
MEDICARE,Very_disadvantaged_Aubagio,Feb-13,0
PRIVATE,Not_covered_Aubagio,Jan-17,0.016457095
PRIVATE,Not_covered_Aubagio,Dec-16,0.016457095
PRIVATE,Not_covered_Aubagio,Nov-16,0.016457095
PRIVATE,Not_covered_Aubagio,Oct-16,0.015394909
PRIVATE,Not_covered_Aubagio,Sep-16,0.015394909
PRIVATE,Not_covered_Aubagio,Aug-16,0.015394909
PRIVATE,Not_covered_Aubagio,Jul-16,0.011053223
PRIVATE,Not_covered_Aubagio,Jun-16,0.011053223
PRIVATE,Not_covered_Aubagio,May-16,0.011053223
PRIVATE,Not_covered_Aubagio,Apr-16,0.012731433
PRIVATE,Not_covered_Aubagio,Mar-16,0.012731433
PRIVATE,Not_covered_Aubagio,Feb-16,0.012731433
PRIVATE,Not_covered_Aubagio,Jan-16,0.01878411
PRIVATE,Not_covered_Aubagio,Dec-15,0.01878411
PRIVATE,Not_covered_Aubagio,Nov-15,0.01878411
PRIVATE,Not_covered_Aubagio,Oct-15,0.01785947
PRIVATE,Not_covered_Aubagio,Sep-15,0.01785947
PRIVATE,Not_covered_Aubagio,Aug-15,0.01785947
PRIVATE,Not_covered_Aubagio,Jul-15,0.026272409
PRIVATE,Not_covered_Aubagio,Jun-15,0.026272409
PRIVATE,Not_covered_Aubagio,May-15,0.026272409
PRIVATE,Not_covered_Aubagio,Apr-15,0.022547553
PRIVATE,Not_covered_Aubagio,Mar-15,0.022547553
PRIVATE,Not_covered_Aubagio,Feb-15,0.022547553
PRIVATE,Not_covered_Aubagio,Jan-15,0.018118711
PRIVATE,Not_covered_Aubagio,Dec-14,0.018118711
PRIVATE,Not_covered_Aubagio,Nov-14,0.018118711
PRIVATE,Not_covered_Aubagio,Oct-14,0.019039
PRIVATE,Not_covered_Aubagio,Sep-14,0.019039
PRIVATE,Not_covered_Aubagio,Aug-14,0.019039
PRIVATE,Not_covered_Aubagio,Jul-14,0.00244652
PRIVATE,Not_covered_Aubagio,Jun-14,0.00244652
PRIVATE,Not_covered_Aubagio,May-14,0.00244652
PRIVATE,Not_covered_Aubagio,Apr-14,0.005772229
PRIVATE,Not_covered_Aubagio,Mar-14,0.005772229
PRIVATE,Not_covered_Aubagio,Feb-14,0.005772229
PRIVATE,Not_covered_Aubagio,Jan-14,0.00230318
PRIVATE,Not_covered_Aubagio,Dec-13,0.00230318
PRIVATE,Not_covered_Aubagio,Nov-13,0.00230318
PRIVATE,Not_covered_Aubagio,Oct-13,0.00265455
PRIVATE,Not_covered_Aubagio,Sep-13,0.00265455
PRIVATE,Not_covered_Aubagio,Aug-13,0.00265455
PRIVATE,Not_covered_Aubagio,Jul-13,0.002914752
PRIVATE,Not_covered_Aubagio,Jun-13,0.002914752
PRIVATE,Not_covered_Aubagio,May-13,0.002914752
PRIVATE,Not_covered_Aubagio,Apr-13,0.002914753
PRIVATE,Not_covered_Aubagio,Mar-13,0.002914753
PRIVATE,Not_covered_Aubagio,Feb-13,0.002914753
PRIVATE,Parity_Aubagio,Jan-17,0.065558694
PRIVATE,Parity_Aubagio,Dec-16,0.065558694
PRIVATE,Parity_Aubagio,Nov-16,0.065558694
PRIVATE,Parity_Aubagio,Oct-16,0.070572842
PRIVATE,Parity_Aubagio,Sep-16,0.070572842
PRIVATE,Parity_Aubagio,Aug-16,0.070572842
PRIVATE,Parity_Aubagio,Jul-16,0.070458889
PRIVATE,Parity_Aubagio,Jun-16,0.070458889
PRIVATE,Parity_Aubagio,May-16,0.070458889
PRIVATE,Parity_Aubagio,Apr-16,0.001779242
PRIVATE,Parity_Aubagio,Mar-16,0.001779242
PRIVATE,Parity_Aubagio,Feb-16,0.001779242
PRIVATE,Parity_Aubagio,Jan-16,0.00174389
PRIVATE,Parity_Aubagio,Dec-15,0.00174389
PRIVATE,Parity_Aubagio,Nov-15,0.00174389
PRIVATE,Parity_Aubagio,Oct-15,0.001740239
PRIVATE,Parity_Aubagio,Sep-15,0.001740239
PRIVATE,Parity_Aubagio,Aug-15,0.001740239
PRIVATE,Parity_Aubagio,Jul-15,0
PRIVATE,Parity_Aubagio,Jun-15,0
PRIVATE,Parity_Aubagio,May-15,0
PRIVATE,Parity_Aubagio,Apr-15,0
PRIVATE,Parity_Aubagio,Mar-15,0
PRIVATE,Parity_Aubagio,Feb-15,0
PRIVATE,Parity_Aubagio,Jan-15,0.00034705
PRIVATE,Parity_Aubagio,Dec-14,0.00034705
PRIVATE,Parity_Aubagio,Nov-14,0.00034705
PRIVATE,Parity_Aubagio,Oct-14,0.050941575
PRIVATE,Parity_Aubagio,Sep-14,0.050941575
PRIVATE,Parity_Aubagio,Aug-14,0.050941575
PRIVATE,Parity_Aubagio,Jul-14,0.032112858
PRIVATE,Parity_Aubagio,Jun-14,0.032112858
PRIVATE,Parity_Aubagio,May-14,0.032112858
PRIVATE,Parity_Aubagio,Apr-14,0.007271108
PRIVATE,Parity_Aubagio,Mar-14,0.007271108
PRIVATE,Parity_Aubagio,Feb-14,0.007271108
PRIVATE,Parity_Aubagio,Jan-14,0.001782257
PRIVATE,Parity_Aubagio,Dec-13,0.001782257
PRIVATE,Parity_Aubagio,Nov-13,0.001782257
PRIVATE,Parity_Aubagio,Oct-13,0.003848708
PRIVATE,Parity_Aubagio,Sep-13,0.003848708
PRIVATE,Parity_Aubagio,Aug-13,0.003848708
PRIVATE,Parity_Aubagio,Jul-13,0.008811009
PRIVATE,Parity_Aubagio,Jun-13,0.008811009
PRIVATE,Parity_Aubagio,May-13,0.008811009
PRIVATE,Parity_Aubagio,Apr-13,0.008811013
PRIVATE,Parity_Aubagio,Mar-13,0.008811013
PRIVATE,Parity_Aubagio,Feb-13,0.008811013
PRIVATE,Somewhat_advantaged_Aubagio,Jan-17,0.041630032
PRIVATE,Somewhat_advantaged_Aubagio,Dec-16,0.041630032
PRIVATE,Somewhat_advantaged_Aubagio,Nov-16,0.041630032
PRIVATE,Somewhat_advantaged_Aubagio,Oct-16,0.040331594
PRIVATE,Somewhat_advantaged_Aubagio,Sep-16,0.040331594
PRIVATE,Somewhat_advantaged_Aubagio,Aug-16,0.040331594
PRIVATE,Somewhat_advantaged_Aubagio,Jul-16,0.124326406
PRIVATE,Somewhat_advantaged_Aubagio,Jun-16,0.124326406
PRIVATE,Somewhat_advantaged_Aubagio,May-16,0.124326406
PRIVATE,Somewhat_advantaged_Aubagio,Apr-16,0.131981322
PRIVATE,Somewhat_advantaged_Aubagio,Mar-16,0.131981322
PRIVATE,Somewhat_advantaged_Aubagio,Feb-16,0.131981322
PRIVATE,Somewhat_advantaged_Aubagio,Jan-16,0.09760116
PRIVATE,Somewhat_advantaged_Aubagio,Dec-15,0.09760116
PRIVATE,Somewhat_advantaged_Aubagio,Nov-15,0.09760116
PRIVATE,Somewhat_advantaged_Aubagio,Oct-15,0.106114244
PRIVATE,Somewhat_advantaged_Aubagio,Sep-15,0.106114244
PRIVATE,Somewhat_advantaged_Aubagio,Aug-15,0.106114244
PRIVATE,Somewhat_advantaged_Aubagio,Jul-15,0.117388174
PRIVATE,Somewhat_advantaged_Aubagio,Jun-15,0.117388174
PRIVATE,Somewhat_advantaged_Aubagio,May-15,0.117388174
PRIVATE,Somewhat_advantaged_Aubagio,Apr-15,0.096073186
PRIVATE,Somewhat_advantaged_Aubagio,Mar-15,0.096073186
PRIVATE,Somewhat_advantaged_Aubagio,Feb-15,0.096073186
PRIVATE,Somewhat_advantaged_Aubagio,Jan-15,0.065676248
PRIVATE,Somewhat_advantaged_Aubagio,Dec-14,0.065676248
PRIVATE,Somewhat_advantaged_Aubagio,Nov-14,0.065676248
PRIVATE,Somewhat_advantaged_Aubagio,Oct-14,0.017087434
PRIVATE,Somewhat_advantaged_Aubagio,Sep-14,0.017087434
PRIVATE,Somewhat_advantaged_Aubagio,Aug-14,0.017087434
PRIVATE,Somewhat_advantaged_Aubagio,Jul-14,0.014880502
PRIVATE,Somewhat_advantaged_Aubagio,Jun-14,0.014880502
PRIVATE,Somewhat_advantaged_Aubagio,May-14,0.014880502
PRIVATE,Somewhat_advantaged_Aubagio,Apr-14,0.021203586
PRIVATE,Somewhat_advantaged_Aubagio,Mar-14,0.021203586
PRIVATE,Somewhat_advantaged_Aubagio,Feb-14,0.021203586
PRIVATE,Somewhat_advantaged_Aubagio,Jan-14,0.013676237
PRIVATE,Somewhat_advantaged_Aubagio,Dec-13,0.013676237
PRIVATE,Somewhat_advantaged_Aubagio,Nov-13,0.013676237
PRIVATE,Somewhat_advantaged_Aubagio,Oct-13,0.013519667
PRIVATE,Somewhat_advantaged_Aubagio,Sep-13,0.013519667
PRIVATE,Somewhat_advantaged_Aubagio,Aug-13,0.013519667
PRIVATE,Somewhat_advantaged_Aubagio,Jul-13,0.015473111
PRIVATE,Somewhat_advantaged_Aubagio,Jun-13,0.015473111
PRIVATE,Somewhat_advantaged_Aubagio,May-13,0.015473111
PRIVATE,Somewhat_advantaged_Aubagio,Apr-13,0.043392801
PRIVATE,Somewhat_advantaged_Aubagio,Mar-13,0.043392801
PRIVATE,Somewhat_advantaged_Aubagio,Feb-13,0.043392801
PRIVATE,Somewhat_disadvantaged_Aubagio,Jan-17,0.461963638
PRIVATE,Somewhat_disadvantaged_Aubagio,Dec-16,0.461963638
PRIVATE,Somewhat_disadvantaged_Aubagio,Nov-16,0.461963638
PRIVATE,Somewhat_disadvantaged_Aubagio,Oct-16,0.430512143
PRIVATE,Somewhat_disadvantaged_Aubagio,Sep-16,0.430512143
PRIVATE,Somewhat_disadvantaged_Aubagio,Aug-16,0.430512143
PRIVATE,Somewhat_disadvantaged_Aubagio,Jul-16,0.380507573
PRIVATE,Somewhat_disadvantaged_Aubagio,Jun-16,0.380507573
PRIVATE,Somewhat_disadvantaged_Aubagio,May-16,0.380507573
PRIVATE,Somewhat_disadvantaged_Aubagio,Apr-16,0.184347067
PRIVATE,Somewhat_disadvantaged_Aubagio,Mar-16,0.184347067
PRIVATE,Somewhat_disadvantaged_Aubagio,Feb-16,0.184347067
PRIVATE,Somewhat_disadvantaged_Aubagio,Jan-16,0.521697136
PRIVATE,Somewhat_disadvantaged_Aubagio,Dec-15,0.521697136
PRIVATE,Somewhat_disadvantaged_Aubagio,Nov-15,0.521697136
PRIVATE,Somewhat_disadvantaged_Aubagio,Oct-15,0.527776939
PRIVATE,Somewhat_disadvantaged_Aubagio,Sep-15,0.527776939
PRIVATE,Somewhat_disadvantaged_Aubagio,Aug-15,0.527776939
PRIVATE,Somewhat_disadvantaged_Aubagio,Jul-15,0.520709601
PRIVATE,Somewhat_disadvantaged_Aubagio,Jun-15,0.520709601
PRIVATE,Somewhat_disadvantaged_Aubagio,May-15,0.520709601
PRIVATE,Somewhat_disadvantaged_Aubagio,Apr-15,0.608450057
PRIVATE,Somewhat_disadvantaged_Aubagio,Mar-15,0.608450057
PRIVATE,Somewhat_disadvantaged_Aubagio,Feb-15,0.608450057
PRIVATE,Somewhat_disadvantaged_Aubagio,Jan-15,0.559459561
PRIVATE,Somewhat_disadvantaged_Aubagio,Dec-14,0.559459561
PRIVATE,Somewhat_disadvantaged_Aubagio,Nov-14,0.559459561
PRIVATE,Somewhat_disadvantaged_Aubagio,Oct-14,0.56470911
PRIVATE,Somewhat_disadvantaged_Aubagio,Sep-14,0.56470911
PRIVATE,Somewhat_disadvantaged_Aubagio,Aug-14,0.56470911
PRIVATE,Somewhat_disadvantaged_Aubagio,Jul-14,0.431673553
PRIVATE,Somewhat_disadvantaged_Aubagio,Jun-14,0.431673553
PRIVATE,Somewhat_disadvantaged_Aubagio,May-14,0.431673553
PRIVATE,Somewhat_disadvantaged_Aubagio,Apr-14,0.432920652
PRIVATE,Somewhat_disadvantaged_Aubagio,Mar-14,0.432920652
PRIVATE,Somewhat_disadvantaged_Aubagio,Feb-14,0.432920652
PRIVATE,Somewhat_disadvantaged_Aubagio,Jan-14,0.404581336
PRIVATE,Somewhat_disadvantaged_Aubagio,Dec-13,0.404581336
PRIVATE,Somewhat_disadvantaged_Aubagio,Nov-13,0.404581336
PRIVATE,Somewhat_disadvantaged_Aubagio,Oct-13,0.296334646
PRIVATE,Somewhat_disadvantaged_Aubagio,Sep-13,0.296334646
PRIVATE,Somewhat_disadvantaged_Aubagio,Aug-13,0.296334646
PRIVATE,Somewhat_disadvantaged_Aubagio,Jul-13,0.32475415
PRIVATE,Somewhat_disadvantaged_Aubagio,Jun-13,0.32475415
PRIVATE,Somewhat_disadvantaged_Aubagio,May-13,0.32475415
PRIVATE,Somewhat_disadvantaged_Aubagio,Apr-13,0.324754146
PRIVATE,Somewhat_disadvantaged_Aubagio,Mar-13,0.324754146
PRIVATE,Somewhat_disadvantaged_Aubagio,Feb-13,0.324754146
PRIVATE,Very_advantaged_Aubagio,Jan-17,0.0061578
PRIVATE,Very_advantaged_Aubagio,Dec-16,0.0061578
PRIVATE,Very_advantaged_Aubagio,Nov-16,0.0061578
PRIVATE,Very_advantaged_Aubagio,Oct-16,0.00521245
PRIVATE,Very_advantaged_Aubagio,Sep-16,0.00521245
PRIVATE,Very_advantaged_Aubagio,Aug-16,0.00521245
PRIVATE,Very_advantaged_Aubagio,Jul-16,0.00520397
PRIVATE,Very_advantaged_Aubagio,Jun-16,0.00520397
PRIVATE,Very_advantaged_Aubagio,May-16,0.00520397
PRIVATE,Very_advantaged_Aubagio,Apr-16,0.005493435
PRIVATE,Very_advantaged_Aubagio,Mar-16,0.005493435
PRIVATE,Very_advantaged_Aubagio,Feb-16,0.005493435
PRIVATE,Very_advantaged_Aubagio,Jan-16,0.010520404
PRIVATE,Very_advantaged_Aubagio,Dec-15,0.010520404
PRIVATE,Very_advantaged_Aubagio,Nov-15,0.010520404
PRIVATE,Very_advantaged_Aubagio,Oct-15,0.005362121
PRIVATE,Very_advantaged_Aubagio,Sep-15,0.005362121
PRIVATE,Very_advantaged_Aubagio,Aug-15,0.005362121
PRIVATE,Very_advantaged_Aubagio,Jul-15,0.005671542
PRIVATE,Very_advantaged_Aubagio,Jun-15,0.005671542
PRIVATE,Very_advantaged_Aubagio,May-15,0.005671542
PRIVATE,Very_advantaged_Aubagio,Apr-15,0.007570793
PRIVATE,Very_advantaged_Aubagio,Mar-15,0.007570793
PRIVATE,Very_advantaged_Aubagio,Feb-15,0.007570793
PRIVATE,Very_advantaged_Aubagio,Jan-15,0.007248572
PRIVATE,Very_advantaged_Aubagio,Dec-14,0.007248572
PRIVATE,Very_advantaged_Aubagio,Nov-14,0.007248572
PRIVATE,Very_advantaged_Aubagio,Oct-14,0.007250026
PRIVATE,Very_advantaged_Aubagio,Sep-14,0.007250026
PRIVATE,Very_advantaged_Aubagio,Aug-14,0.007250026
PRIVATE,Very_advantaged_Aubagio,Jul-14,0.009805585
PRIVATE,Very_advantaged_Aubagio,Jun-14,0.009805585
PRIVATE,Very_advantaged_Aubagio,May-14,0.009805585
PRIVATE,Very_advantaged_Aubagio,Apr-14,0.010391238
PRIVATE,Very_advantaged_Aubagio,Mar-14,0.010391238
PRIVATE,Very_advantaged_Aubagio,Feb-14,0.010391238
PRIVATE,Very_advantaged_Aubagio,Jan-14,0
PRIVATE,Very_advantaged_Aubagio,Dec-13,0
PRIVATE,Very_advantaged_Aubagio,Nov-13,0
PRIVATE,Very_advantaged_Aubagio,Oct-13,0.168859351
PRIVATE,Very_advantaged_Aubagio,Sep-13,0.168859351
PRIVATE,Very_advantaged_Aubagio,Aug-13,0.168859351
PRIVATE,Very_advantaged_Aubagio,Jul-13,0.113167287
PRIVATE,Very_advantaged_Aubagio,Jun-13,0.113167287
PRIVATE,Very_advantaged_Aubagio,May-13,0.113167287
PRIVATE,Very_advantaged_Aubagio,Apr-13,0.085247661
PRIVATE,Very_advantaged_Aubagio,Mar-13,0.085247661
PRIVATE,Very_advantaged_Aubagio,Feb-13,0.085247661
PRIVATE,Very_disadvantaged_Aubagio,Jan-17,0.408232741
PRIVATE,Very_disadvantaged_Aubagio,Dec-16,0.408232741
PRIVATE,Very_disadvantaged_Aubagio,Nov-16,0.408232741
PRIVATE,Very_disadvantaged_Aubagio,Oct-16,0.437976061
PRIVATE,Very_disadvantaged_Aubagio,Sep-16,0.437976061
PRIVATE,Very_disadvantaged_Aubagio,Aug-16,0.437976061
PRIVATE,Very_disadvantaged_Aubagio,Jul-16,0.408449939
PRIVATE,Very_disadvantaged_Aubagio,Jun-16,0.408449939
PRIVATE,Very_disadvantaged_Aubagio,May-16,0.408449939
PRIVATE,Very_disadvantaged_Aubagio,Apr-16,0.663667501
PRIVATE,Very_disadvantaged_Aubagio,Mar-16,0.663667501
PRIVATE,Very_disadvantaged_Aubagio,Feb-16,0.663667501
PRIVATE,Very_disadvantaged_Aubagio,Jan-16,0.3496533
PRIVATE,Very_disadvantaged_Aubagio,Dec-15,0.3496533
PRIVATE,Very_disadvantaged_Aubagio,Nov-15,0.3496533
PRIVATE,Very_disadvantaged_Aubagio,Oct-15,0.341146987
PRIVATE,Very_disadvantaged_Aubagio,Sep-15,0.341146987
PRIVATE,Very_disadvantaged_Aubagio,Aug-15,0.341146987
PRIVATE,Very_disadvantaged_Aubagio,Jul-15,0.329958273
PRIVATE,Very_disadvantaged_Aubagio,Jun-15,0.329958273
PRIVATE,Very_disadvantaged_Aubagio,May-15,0.329958273
PRIVATE,Very_disadvantaged_Aubagio,Apr-15,0.265358411
PRIVATE,Very_disadvantaged_Aubagio,Mar-15,0.265358411
PRIVATE,Very_disadvantaged_Aubagio,Feb-15,0.265358411
PRIVATE,Very_disadvantaged_Aubagio,Jan-15,0.349149858
PRIVATE,Very_disadvantaged_Aubagio,Dec-14,0.349149858
PRIVATE,Very_disadvantaged_Aubagio,Nov-14,0.349149858
PRIVATE,Very_disadvantaged_Aubagio,Oct-14,0.340972854
PRIVATE,Very_disadvantaged_Aubagio,Sep-14,0.340972854
PRIVATE,Very_disadvantaged_Aubagio,Aug-14,0.340972854
PRIVATE,Very_disadvantaged_Aubagio,Jul-14,0.509080983
PRIVATE,Very_disadvantaged_Aubagio,Jun-14,0.509080983
PRIVATE,Very_disadvantaged_Aubagio,May-14,0.509080983
PRIVATE,Very_disadvantaged_Aubagio,Apr-14,0.522441187
PRIVATE,Very_disadvantaged_Aubagio,Mar-14,0.522441187
PRIVATE,Very_disadvantaged_Aubagio,Feb-14,0.522441187
PRIVATE,Very_disadvantaged_Aubagio,Jan-14,0.577656991
PRIVATE,Very_disadvantaged_Aubagio,Dec-13,0.577656991
PRIVATE,Very_disadvantaged_Aubagio,Nov-13,0.577656991
PRIVATE,Very_disadvantaged_Aubagio,Oct-13,0.514783079
PRIVATE,Very_disadvantaged_Aubagio,Sep-13,0.514783079
PRIVATE,Very_disadvantaged_Aubagio,Aug-13,0.514783079
PRIVATE,Very_disadvantaged_Aubagio,Jul-13,0.534879691
PRIVATE,Very_disadvantaged_Aubagio,Jun-13,0.534879691
PRIVATE,Very_disadvantaged_Aubagio,May-13,0.534879691
PRIVATE,Very_disadvantaged_Aubagio,Apr-13,0.534879626
PRIVATE,Very_disadvantaged_Aubagio,Mar-13,0.534879626
PRIVATE,Very_disadvantaged_Aubagio,Feb-13,0.534879626
