AE,ICD10,ICD9
Glomerular Nephropathies,C88.0,273.3
Glomerular Nephropathies,C90.0,NA
Glomerular Nephropathies,M31.0,446.2
Glomerular Nephropathies,M31.0,446.21
Glomerular Nephropathies,M31.0,446.29
Glomerular Nephropathies,M31.1,446.6
Glomerular Nephropathies,M32.14,710
Glomerular Nephropathies,M32.14,583.81
Glomerular Nephropathies,N00.9,580.9
Glomerular Nephropathies,N01.9,580.4
Glomerular Nephropathies,N03.9,582.9
Glomerular Nephropathies,N05.0,583.89
Glomerular Nephropathies,N05.1,583.89
Glomerular Nephropathies,N05.2,583.1
Glomerular Nephropathies,N05.3,583.2
Glomerular Nephropathies,N05.4,583.2
Glomerular Nephropathies,N05.5,583.2
Glomerular Nephropathies,N05.6,583.89
Glomerular Nephropathies,N05.7,583.89
Glomerular Nephropathies,N05.8,583.89
Glomerular Nephropathies,N05.9,583
Glomerular Nephropathies,N05.9,583.4
Glomerular Nephropathies,N05.9,583.9
Goitre,C73,193
Thyroid disorder,E01.8,244.8
Hypothyroidism,E02,244.8
Hypothyroidism,E03.2,244.2
Hypothyroidism,E03.9,244.9
Goitre,E04.0,240
Goitre,E04.1,241
Goitre,E04.1,246.2
Goitre,E04.2,241.1
Goitre,E04.8,241.9
Goitre,E04.9,241.9
Graves' disease,E05.00,242
Graves' disease & Thyrotoxic crisis,E05.01,242.01
Goitre,E05.10,242.1
Goitre & Thyrotoxic crisis,E05.11,242.11
Goitre,E05.20,242.2
Goitre & Thyrotoxic crisis,E05.21,242.21
Goitre & Thyrotoxic crisis,E05.21,242.31
Hyperthyroidism,E05.30,242.4
Hyperthyroidism & Thyrotoxic crisis,E05.31,242.41
Other thyroid,E05.40,242.8
Other thyroid,E05.41,242.81
Other thyroid,E05.80,242.8
Other thyroid,E05.81,242.81
Other thyroid,E05.90,242.9
Other thyroid,E05.91,242.91
Thyroid storm / Thyrotoxic crisis,E06.2,245.8
Autoimmune thyroiditis,E06.3,245.2
Goitre,E06.3,245.2
Goitre,E07.1,246.1
Thyroid disorder,E07.89,246.3
Thyroid disorder,E07.89,246.8
Thyroid disorder,E07.9,246.9
Goitre,Q89.2,759.2
Immune thrombocytopenia,D69.3,287.31
Other primary thrombocytopenia,D69.49,287.39
Other secondary thrombocytopenia,D69.59,287.49
